build/AXI4_Interconnect_tb.vcd
$date
	Mon Aug 08 15:43:25 2022
$end
$version
	Icarus Verilog
$end
$timescale
	1ns
$end
$scope module AXI4_Interconnect_tb $end
$var wire 1 ! S_WVALID $end
$var wire 1 " S_WREADY $end
$var wire 1 # S_WLAST $end
$var wire 4 $ S_WID [3:0] $end
$var wire 8 % S_WDATA [7:0] $end
$var wire 1 & S_RVALID $end
$var wire 2 ' S_RRESP [1:0] $end
$var wire 1 ( S_RREADY $end
$var wire 1 ) S_RLAST $end
$var wire 4 * S_RID [3:0] $end
$var wire 8 + S_RDATA [7:0] $end
$var wire 1 , S_BVALID $end
$var wire 2 - S_BRESP [1:0] $end
$var wire 1 . S_BREADY $end
$var wire 4 / S_BID [3:0] $end
$var wire 1 0 S_AWVALID $end
$var wire 3 1 S_AWSIZE [2:0] $end
$var wire 1 2 S_AWREADY $end
$var wire 8 3 S_AWLEN [7:0] $end
$var wire 4 4 S_AWID [3:0] $end
$var wire 2 5 S_AWBURST [1:0] $end
$var wire 5 6 S_AWADDR [4:0] $end
$var wire 1 7 S_ARVALID $end
$var wire 3 8 S_ARSIZE [2:0] $end
$var wire 1 9 S_ARREADY $end
$var wire 8 : S_ARLEN [7:0] $end
$var wire 4 ; S_ARID [3:0] $end
$var wire 1 < S_ARESET $end
$var wire 2 = S_ARBURST [1:0] $end
$var wire 5 > S_ARADDR [4:0] $end
$var wire 1 ? S_ACLK $end
$var wire 1 @ Master_2_Set $end
$var wire 1 A Master_2_Release $end
$var wire 1 B Master_1_Set $end
$var wire 1 C Master_1_Release $end
$var wire 1 D M2_WVALID $end
$var wire 1 E M2_WREADY $end
$var wire 1 F M2_WLAST $end
$var wire 4 G M2_WID [3:0] $end
$var wire 8 H M2_WDATA [7:0] $end
$var wire 1 I M2_RVALID $end
$var wire 2 J M2_RRESP [1:0] $end
$var wire 1 K M2_RREADY $end
$var wire 1 L M2_RLAST $end
$var wire 4 M M2_RID [3:0] $end
$var wire 8 N M2_RDATA [7:0] $end
$var wire 1 O M2_BVALID $end
$var wire 2 P M2_BRESP [1:0] $end
$var wire 1 Q M2_BREADY $end
$var wire 4 R M2_BID [3:0] $end
$var wire 1 S M2_AWVALID $end
$var wire 3 T M2_AWSIZE [2:0] $end
$var wire 1 U M2_AWREADY $end
$var wire 8 V M2_AWLEN [7:0] $end
$var wire 4 W M2_AWID [3:0] $end
$var wire 2 X M2_AWBURST [1:0] $end
$var wire 5 Y M2_AWADDR [4:0] $end
$var wire 1 Z M2_ARVALID $end
$var wire 3 [ M2_ARSIZE [2:0] $end
$var wire 1 \ M2_ARREADY $end
$var wire 8 ] M2_ARLEN [7:0] $end
$var wire 4 ^ M2_ARID [3:0] $end
$var wire 1 _ M2_ARESET $end
$var wire 2 ` M2_ARBURST [1:0] $end
$var wire 5 a M2_ARADDR [4:0] $end
$var wire 1 b M2_ACLK $end
$var wire 1 c M1_WVALID $end
$var wire 1 d M1_WREADY $end
$var wire 1 e M1_WLAST $end
$var wire 4 f M1_WID [3:0] $end
$var wire 8 g M1_WDATA [7:0] $end
$var wire 1 h M1_RVALID $end
$var wire 2 i M1_RRESP [1:0] $end
$var wire 1 j M1_RREADY $end
$var wire 1 k M1_RLAST $end
$var wire 4 l M1_RID [3:0] $end
$var wire 8 m M1_RDATA [7:0] $end
$var wire 1 n M1_BVALID $end
$var wire 2 o M1_BRESP [1:0] $end
$var wire 1 p M1_BREADY $end
$var wire 4 q M1_BID [3:0] $end
$var wire 1 r M1_AWVALID $end
$var wire 3 s M1_AWSIZE [2:0] $end
$var wire 1 t M1_AWREADY $end
$var wire 8 u M1_AWLEN [7:0] $end
$var wire 4 v M1_AWID [3:0] $end
$var wire 2 w M1_AWBURST [1:0] $end
$var wire 5 x M1_AWADDR [4:0] $end
$var wire 1 y M1_ARVALID $end
$var wire 3 z M1_ARSIZE [2:0] $end
$var wire 1 { M1_ARREADY $end
$var wire 8 | M1_ARLEN [7:0] $end
$var wire 4 } M1_ARID [3:0] $end
$var wire 1 ~ M1_ARESET $end
$var wire 2 !" M1_ARBURST [1:0] $end
$var wire 5 "" M1_ARADDR [4:0] $end
$var wire 1 #" M1_ACLK $end
$var reg 1 $" clk $end
$var reg 1 %" rst $end
$scope module u_AXI4_BRAM_Controller $end
$var wire 1 ! WVALID $end
$var wire 1 # WLAST $end
$var wire 4 &" WID [3:0] $end
$var wire 8 '" WDATA [7:0] $end
$var wire 1 ( RREADY $end
$var wire 1 . BREADY $end
$var wire 1 0 AWVALID $end
$var wire 3 (" AWSIZE [2:0] $end
$var wire 8 )" AWLEN [7:0] $end
$var wire 4 *" AWID [3:0] $end
$var wire 2 +" AWBURST [1:0] $end
$var wire 5 ," AWADDR [4:0] $end
$var wire 1 7 ARVALID $end
$var wire 3 -" ARSIZE [2:0] $end
$var wire 8 ." ARLEN [7:0] $end
$var wire 4 /" ARID [3:0] $end
$var wire 1 < ARESET $end
$var wire 2 0" ARBURST [1:0] $end
$var wire 5 1" ARADDR [4:0] $end
$var wire 1 ? ACLK $end
$var reg 1 9 ARREADY $end
$var reg 1 2 AWREADY $end
$var reg 4 2" BID [3:0] $end
$var reg 2 3" BRESP [1:0] $end
$var reg 1 , BVALID $end
$var reg 8 4" RDATA [7:0] $end
$var reg 4 5" RID [3:0] $end
$var reg 1 ) RLAST $end
$var reg 2 6" RRESP [1:0] $end
$var reg 1 & RVALID $end
$var reg 1 " WREADY $end
$var reg 1 7" firstTimeInitBRAMAddress $end
$var reg 5 8" readAddressBRAM [4:0] $end
$var reg 1 9" readAddressChannelEnabled $end
$var reg 3 :" readBurstTypeState [2:0] $end
$var reg 1 ;" readChannelEnabled $end
$var reg 1 <" readEnable $end
$var reg 2 =" readStatusRRESP [1:0] $end
$var reg 4 >" readTransactionID [3:0] $end
$var reg 5 ?" writeAddressBRAM [4:0] $end
$var reg 1 @" writeAddressChannelEnabled $end
$var reg 3 A" writeBurstTypeState [2:0] $end
$var reg 1 B" writeChannelEnabled $end
$var reg 1 C" writeEnable $end
$var reg 1 D" writeResponseChannelEnabled $end
$var reg 2 E" writeStatusBRESP [1:0] $end
$var reg 4 F" writeTransactionID [3:0] $end
$scope begin register[0] $end
$var wire 8 G" wireOfBRAM [7:0] $end
$upscope $end
$scope begin register[1] $end
$var wire 8 H" wireOfBRAM [7:0] $end
$upscope $end
$scope begin register[2] $end
$var wire 8 I" wireOfBRAM [7:0] $end
$upscope $end
$scope begin register[3] $end
$var wire 8 J" wireOfBRAM [7:0] $end
$upscope $end
$scope begin register[4] $end
$var wire 8 K" wireOfBRAM [7:0] $end
$upscope $end
$scope begin register[5] $end
$var wire 8 L" wireOfBRAM [7:0] $end
$upscope $end
$scope begin register[6] $end
$var wire 8 M" wireOfBRAM [7:0] $end
$upscope $end
$scope begin register[7] $end
$var wire 8 N" wireOfBRAM [7:0] $end
$upscope $end
$scope begin register[8] $end
$var wire 8 O" wireOfBRAM [7:0] $end
$upscope $end
$scope begin register[9] $end
$var wire 8 P" wireOfBRAM [7:0] $end
$upscope $end
$upscope $end
$scope module u_AXI4_Interconnect $end
$var wire 1 #" M1_ACLK $end
$var wire 1 ~ M1_ARESET $end
$var wire 1 b M2_ACLK $end
$var wire 1 _ M2_ARESET $end
$var wire 1 B Master_1_Set $end
$var wire 1 @ Master_2_Set $end
$var wire 1 ? S_ACLK $end
$var wire 1 < S_ARESET $end
$var wire 1 9 S_ARREADY $end
$var wire 1 2 S_AWREADY $end
$var wire 4 Q" S_BID [3:0] $end
$var wire 2 R" S_BRESP [1:0] $end
$var wire 1 , S_BVALID $end
$var wire 8 S" S_RDATA [7:0] $end
$var wire 4 T" S_RID [3:0] $end
$var wire 1 ) S_RLAST $end
$var wire 2 U" S_RRESP [1:0] $end
$var wire 1 & S_RVALID $end
$var wire 1 " S_WREADY $end
$var wire 1 $" clk $end
$var wire 1 %" rst $end
$var wire 1 ! S_WVALID $end
$var wire 1 # S_WLAST $end
$var wire 4 V" S_WID [3:0] $end
$var wire 8 W" S_WDATA [7:0] $end
$var wire 1 ( S_RREADY $end
$var wire 1 . S_BREADY $end
$var wire 1 0 S_AWVALID $end
$var wire 3 X" S_AWSIZE [2:0] $end
$var wire 8 Y" S_AWLEN [7:0] $end
$var wire 4 Z" S_AWID [3:0] $end
$var wire 2 [" S_AWBURST [1:0] $end
$var wire 5 \" S_AWADDR [4:0] $end
$var wire 1 7 S_ARVALID $end
$var wire 3 ]" S_ARSIZE [2:0] $end
$var wire 8 ^" S_ARLEN [7:0] $end
$var wire 4 _" S_ARID [3:0] $end
$var wire 2 `" S_ARBURST [1:0] $end
$var wire 5 a" S_ARADDR [4:0] $end
$var wire 1 A Master_2_Release $end
$var wire 1 C Master_1_Release $end
$var wire 1 D M2_WVALID $end
$var wire 1 E M2_WREADY $end
$var wire 1 F M2_WLAST $end
$var wire 4 b" M2_WID [3:0] $end
$var wire 8 c" M2_WDATA [7:0] $end
$var wire 1 I M2_RVALID $end
$var wire 2 d" M2_RRESP [1:0] $end
$var wire 1 K M2_RREADY $end
$var wire 1 L M2_RLAST $end
$var wire 4 e" M2_RID [3:0] $end
$var wire 8 f" M2_RDATA [7:0] $end
$var wire 1 O M2_BVALID $end
$var wire 2 g" M2_BRESP [1:0] $end
$var wire 1 Q M2_BREADY $end
$var wire 4 h" M2_BID [3:0] $end
$var wire 1 S M2_AWVALID $end
$var wire 3 i" M2_AWSIZE [2:0] $end
$var wire 1 U M2_AWREADY $end
$var wire 8 j" M2_AWLEN [7:0] $end
$var wire 4 k" M2_AWID [3:0] $end
$var wire 2 l" M2_AWBURST [1:0] $end
$var wire 5 m" M2_AWADDR [4:0] $end
$var wire 1 Z M2_ARVALID $end
$var wire 3 n" M2_ARSIZE [2:0] $end
$var wire 1 \ M2_ARREADY $end
$var wire 8 o" M2_ARLEN [7:0] $end
$var wire 4 p" M2_ARID [3:0] $end
$var wire 2 q" M2_ARBURST [1:0] $end
$var wire 5 r" M2_ARADDR [4:0] $end
$var wire 1 c M1_WVALID $end
$var wire 1 d M1_WREADY $end
$var wire 1 e M1_WLAST $end
$var wire 4 s" M1_WID [3:0] $end
$var wire 8 t" M1_WDATA [7:0] $end
$var wire 1 h M1_RVALID $end
$var wire 2 u" M1_RRESP [1:0] $end
$var wire 1 j M1_RREADY $end
$var wire 1 k M1_RLAST $end
$var wire 4 v" M1_RID [3:0] $end
$var wire 8 w" M1_RDATA [7:0] $end
$var wire 1 n M1_BVALID $end
$var wire 2 x" M1_BRESP [1:0] $end
$var wire 1 p M1_BREADY $end
$var wire 4 y" M1_BID [3:0] $end
$var wire 1 r M1_AWVALID $end
$var wire 3 z" M1_AWSIZE [2:0] $end
$var wire 1 t M1_AWREADY $end
$var wire 8 {" M1_AWLEN [7:0] $end
$var wire 4 |" M1_AWID [3:0] $end
$var wire 2 }" M1_AWBURST [1:0] $end
$var wire 5 ~" M1_AWADDR [4:0] $end
$var wire 1 y M1_ARVALID $end
$var wire 3 !# M1_ARSIZE [2:0] $end
$var wire 1 { M1_ARREADY $end
$var wire 8 "# M1_ARLEN [7:0] $end
$var wire 4 ## M1_ARID [3:0] $end
$var wire 2 $# M1_ARBURST [1:0] $end
$var wire 5 %# M1_ARADDR [4:0] $end
$var reg 3 &# Master_1 [2:0] $end
$var reg 3 '# Master_2 [2:0] $end
$var reg 3 (# currentMaster [2:0] $end
$var reg 3 )# masterIndex [2:0] $end
$upscope $end
$scope module u_AXI4_Poly_Add $end
$var wire 1 b ACLK $end
$var wire 1 _ ARESET $end
$var wire 1 \ ARREADY $end
$var wire 1 U AWREADY $end
$var wire 4 *# BID [3:0] $end
$var wire 2 +# BRESP [1:0] $end
$var wire 1 O BVALID $end
$var wire 8 ,# RDATA [7:0] $end
$var wire 4 -# RID [3:0] $end
$var wire 1 L RLAST $end
$var wire 2 .# RRESP [1:0] $end
$var wire 1 I RVALID $end
$var wire 1 @ SET_ACCESS $end
$var wire 1 E WREADY $end
$var reg 5 /# ARADDR [4:0] $end
$var reg 2 0# ARBURST [1:0] $end
$var reg 4 1# ARID [3:0] $end
$var reg 8 2# ARLEN [7:0] $end
$var reg 3 3# ARSIZE [2:0] $end
$var reg 1 Z ARVALID $end
$var reg 5 4# AWADDR [4:0] $end
$var reg 2 5# AWBURST [1:0] $end
$var reg 4 6# AWID [3:0] $end
$var reg 8 7# AWLEN [7:0] $end
$var reg 3 8# AWSIZE [2:0] $end
$var reg 1 S AWVALID $end
$var reg 1 Q BREADY $end
$var reg 1 A RELEASE_ACCESS $end
$var reg 1 K RREADY $end
$var reg 8 9# WDATA [7:0] $end
$var reg 4 :# WID [3:0] $end
$var reg 1 F WLAST $end
$var reg 1 D WVALID $end
$var reg 1 ;# doReadAddressStall $end
$var reg 1 <# doWriteDataStall $end
$var reg 1 =# firstTimeInitArrayAddress $end
$var reg 1 ># performOperations $end
$var reg 5 ?# readAddressARRAY [4:0] $end
$var reg 1 @# readAddressChannelEnabled $end
$var reg 1 A# readChannelEnabled $end
$var reg 4 B# readTransactionID [3:0] $end
$var reg 1 C# resetReleaseAccess $end
$var reg 5 D# writeAddressARRAY [4:0] $end
$var reg 1 E# writeAddressChannelEnabled $end
$var reg 1 F# writeChannelEnabled $end
$var reg 1 G# writeResponseChannelEnabled $end
$var reg 2 H# writeStatusBRESP [1:0] $end
$var reg 4 I# writeTransactionID [3:0] $end
$var integer 32 J# arrayIndex [31:0] $end
$var integer 32 K# delayReadCyclesCounter [31:0] $end
$var integer 32 L# delayWriteCyclesCounter [31:0] $end
$scope begin register[0] $end
$var wire 8 M# wireOfPoly [7:0] $end
$upscope $end
$scope begin register[1] $end
$var wire 8 N# wireOfPoly [7:0] $end
$upscope $end
$scope begin register[2] $end
$var wire 8 O# wireOfPoly [7:0] $end
$upscope $end
$scope begin register[3] $end
$var wire 8 P# wireOfPoly [7:0] $end
$upscope $end
$upscope $end
$scope module u_AXI4_Write_BRAM $end
$var wire 1 #" ACLK $end
$var wire 1 ~ ARESET $end
$var wire 1 { ARREADY $end
$var wire 1 t AWREADY $end
$var wire 4 Q# BID [3:0] $end
$var wire 2 R# BRESP [1:0] $end
$var wire 1 n BVALID $end
$var wire 8 S# RDATA [7:0] $end
$var wire 4 T# RID [3:0] $end
$var wire 1 k RLAST $end
$var wire 2 U# RRESP [1:0] $end
$var wire 1 h RVALID $end
$var wire 1 B SET_ACCESS $end
$var wire 1 d WREADY $end
$var reg 5 V# ARADDR [4:0] $end
$var reg 2 W# ARBURST [1:0] $end
$var reg 4 X# ARID [3:0] $end
$var reg 8 Y# ARLEN [7:0] $end
$var reg 3 Z# ARSIZE [2:0] $end
$var reg 1 y ARVALID $end
$var reg 5 [# AWADDR [4:0] $end
$var reg 2 \# AWBURST [1:0] $end
$var reg 4 ]# AWID [3:0] $end
$var reg 8 ^# AWLEN [7:0] $end
$var reg 3 _# AWSIZE [2:0] $end
$var reg 1 r AWVALID $end
$var reg 1 p BREADY $end
$var reg 1 C RELEASE_ACCESS $end
$var reg 1 j RREADY $end
$var reg 8 `# WDATA [7:0] $end
$var reg 4 a# WID [3:0] $end
$var reg 1 e WLAST $end
$var reg 1 c WVALID $end
$var reg 1 b# doReadAddressStall $end
$var reg 1 c# doWriteDataStall $end
$var reg 1 d# firstTimeInitArrayAddress $end
$var reg 1 e# performOperations $end
$var reg 5 f# readAddressARRAY [4:0] $end
$var reg 1 g# readAddressChannelEnabled $end
$var reg 1 h# readChannelEnabled $end
$var reg 4 i# readTransactionID [3:0] $end
$var reg 1 j# resetReleaseAccess $end
$var reg 5 k# writeAddressARRAY [4:0] $end
$var reg 1 l# writeAddressChannelEnabled $end
$var reg 1 m# writeChannelEnabled $end
$var reg 1 n# writeResponseChannelEnabled $end
$var reg 2 o# writeStatusBRESP [1:0] $end
$var reg 4 p# writeTransactionID [3:0] $end
$var integer 32 q# arrayIndex [31:0] $end
$var integer 32 r# delayReadCyclesCounter [31:0] $end
$var integer 32 s# delayWriteCyclesCounter [31:0] $end
$scope begin register[0] $end
$var wire 8 t# wireOfPoly [7:0] $end
$upscope $end
$scope begin register[1] $end
$var wire 8 u# wireOfPoly [7:0] $end
$upscope $end
$scope begin register[2] $end
$var wire 8 v# wireOfPoly [7:0] $end
$upscope $end
$scope begin register[3] $end
$var wire 8 w# wireOfPoly [7:0] $end
$upscope $end
$upscope $end
$scope begin $ivl_for_loop0 $end
$var integer 32 x# index [31:0] $end
$upscope $end
$upscope $end
$enddefinitions $end
#0
$dumpvars
bx x#
bx w#
bx v#
bx u#
bx t#
b0 s#
b0 r#
b0 q#
bz p#
b0z o#
zn#
zm#
zl#
bx k#
zj#
bz i#
zh#
zg#
bx f#
ze#
zd#
zc#
zb#
bx a#
bx `#
bx _#
bx ^#
bx ]#
bx \#
bx [#
bx Z#
bx Y#
bx X#
bx W#
bx V#
bx U#
bx T#
bx S#
bx R#
bx Q#
bx P#
bx O#
bx N#
bx M#
b0 L#
b0 K#
b0 J#
bz I#
b0z H#
zG#
zF#
zE#
bx D#
zC#
bz B#
zA#
z@#
bx ?#
z>#
z=#
z<#
z;#
bx :#
bx 9#
bx 8#
bx 7#
bx 6#
bx 5#
bx 4#
bx 3#
bx 2#
bx 1#
bx 0#
bx /#
bx .#
bx -#
bx ,#
bx +#
bx *#
bz )#
bz (#
b10 '#
b1 &#
bx %#
bx $#
bx ##
bx "#
bx !#
bx ~"
bx }"
bx |"
bx {"
bx z"
bx y"
bx x"
bx w"
bx v"
bx u"
bx t"
bx s"
bx r"
bx q"
bx p"
bx o"
bx n"
bx m"
bx l"
bx k"
bx j"
bx i"
bx h"
bx g"
bx f"
bx e"
bx d"
bx c"
bx b"
bx a"
bx `"
bx _"
bx ^"
bx ]"
bx \"
bx ["
bx Z"
bx Y"
bx X"
bx W"
bx V"
bx U"
bx T"
bx S"
bx R"
bx Q"
b0 P"
b0 O"
b0 N"
b0 M"
b0 L"
b0 K"
b0 J"
b0 I"
b0 H"
b0 G"
bz F"
bz E"
zD"
zC"
zB"
bz A"
z@"
bx ?"
bz >"
bz ="
z<"
z;"
bz :"
z9"
bx 8"
z7"
bx 6"
bx 5"
bx 4"
bx 3"
bx 2"
bx 1"
bx 0"
bx /"
bx ."
bx -"
bx ,"
bx +"
bx *"
bx )"
bx ("
bx '"
bx &"
1%"
0$"
0#"
bx ""
bx !"
1~
bx }
bx |
x{
bx z
xy
bx x
bx w
bx v
bx u
xt
bx s
xr
bx q
xp
bx o
xn
bx m
bx l
xk
xj
bx i
xh
bx g
bx f
xe
xd
xc
0b
bx a
bx `
1_
bx ^
bx ]
x\
bx [
xZ
bx Y
bx X
bx W
bx V
xU
bx T
xS
bx R
xQ
bx P
xO
bx N
bx M
xL
xK
bx J
xI
bx H
bx G
xF
xE
xD
zC
xB
zA
x@
0?
bx >
bx =
1<
bx ;
bx :
x9
bx 8
x7
bx 6
bx 5
bx 4
bx 3
x2
bx 1
x0
bx /
x.
bx -
x,
bx +
bx *
x)
x(
bx '
x&
bx %
bx $
x#
x"
x!
$end
#5
bz ;
bz /"
bz _"
bz >
bz 1"
bz a"
bz =
bz 0"
bz `"
z7
bz :
bz ."
bz ^"
bz 8
bz -"
bz ]"
z{
z\
bz l
bz v"
bz T#
bz m
bz w"
bz S#
zk
zh
bz i
bz u"
bz U#
bz M
bz e"
bz -#
bz N
bz f"
bz ,#
zL
zI
bz J
bz d"
bz .#
z(
bz 4
bz *"
bz Z"
bz 6
bz ,"
bz \"
bz 5
bz +"
bz ["
z0
bz 3
bz )"
bz Y"
bz 1
bz ("
bz X"
zt
zU
bz $
bz &"
bz V"
bz %
bz '"
bz W"
z!
z#
zd
zE
bz q
bz y"
bz Q#
bz o
bz x"
bz R#
zn
bz R
bz h"
bz *#
bz P
bz g"
bz +#
zO
z.
1@"
19"
bz ?"
bz 8"
0C"
0<"
bz -
bz 3"
bz R"
bz /
bz 2"
bz Q"
z"
z2
bz '
bz 6"
bz U"
z)
bz +
bz 4"
bz S"
bz *
bz 5"
bz T"
z,
z&
z9
0C
1l#
b0 p#
b0 i#
bz k#
bz f#
zp
ze
zc
bz g
bz t"
bz `#
bz f
bz s"
bz a#
bz s
bz z"
bz _#
bz u
bz {"
bz ^#
zr
bz w
bz }"
bz \#
bz x
bz ~"
bz [#
bz v
bz |"
bz ]#
b11 w#
b100 v#
b101 u#
b10 t#
zj
bz z
bz !#
bz Z#
bz |
bz "#
bz Y#
zy
bz !"
bz $#
bz W#
bz ""
bz %#
bz V#
bz }
bz ##
bz X#
0A
1;#
b0 I#
b0 B#
bz D#
bz ?#
zQ
zF
zD
bz H
bz c"
bz 9#
bz G
bz b"
bz :#
bz T
bz i"
bz 8#
bz V
bz j"
bz 7#
zS
bz X
bz l"
bz 5#
bz Y
bz m"
bz 4#
bz W
bz k"
bz 6#
bz P#
bz O#
bz N#
bz M#
zK
bz [
bz n"
bz 3#
bz ]
bz o"
bz 2#
zZ
bz `
bz q"
bz 0#
bz a
bz r"
bz /#
bz ^
bz p"
bz 1#
b1 (#
b1 )#
z@
zB
0<
0~
0_
0%"
1?
1#"
1b
1$"
#10
0?
0#"
0b
0$"
#15
0n
1t
0k
1{
0,
12
0)
19
1?
1#"
1b
1$"
b0 x#
1<
1~
1_
1%"
#20
0?
0#"
0b
0$"
#25
1B
1?
1#"
1b
1$"
b1 x#
#30
0?
0#"
0b
0$"
#35
0#
10
b1 5
b1 +"
b1 ["
b0 1
b0 ("
b0 X"
b11 3
b11 )"
b11 Y"
b0 6
b0 ,"
b0 \"
b0 4
b0 *"
b0 Z"
0l#
1c#
0e
1r
b1 w
b1 }"
b1 \#
b0 s
b0 z"
b0 _#
b11 u
b11 {"
b11 ^#
b0 x
b0 ~"
b0 [#
b0 v
b0 |"
b0 ]#
1?
1#"
1b
1$"
b10 x#
#40
0?
0#"
0b
0$"
#45
0t
1d
1!
b0 $
b0 &"
b0 V"
00
02
0@"
1C"
b1 A"
b0 F"
1"
17"
0c#
1m#
b0 k#
1c
b0 f
b0 s"
b0 a#
0r
1B"
1?
1#"
1b
1$"
b11 x#
#50
0?
0#"
0b
0$"
#55
b10 %
b10 '"
b10 W"
07"
b0 ?"
b1 k#
b10 g
b10 t"
b10 `#
1?
1#"
1b
1$"
b100 x#
#60
0?
0#"
0b
0$"
#65
b101 %
b101 '"
b101 W"
b10 G"
b1 ?"
b10 k#
b101 g
b101 t"
b101 `#
1?
1#"
1b
1$"
b101 x#
#70
0?
0#"
0b
0$"
#75
b100 %
b100 '"
b100 W"
b10 ?"
b101 H"
b11 k#
b100 g
b100 t"
b100 `#
1?
1#"
1b
1$"
b110 x#
#80
0?
0#"
0b
0$"
#85
0!
1#
b11 %
b11 '"
b11 W"
b100 I"
b11 ?"
0m#
0c
1e
1n#
bz k#
b11 g
b11 t"
b11 `#
1?
1#"
1b
1$"
b111 x#
#90
0?
0#"
0b
0$"
#95
0d
1.
0#
bz %
bz '"
bz W"
bz $
bz &"
bz V"
bz 5
bz +"
bz ["
bz 1
bz ("
bz X"
bz 3
bz )"
bz Y"
bz 6
bz ,"
bz \"
bz 4
bz *"
bz Z"
0B"
bz ?"
0C"
0"
b0 E"
1D"
b11 J"
1p
0e
bz g
bz t"
bz `#
bz f
bz s"
bz a#
bz w
bz }"
bz \#
bz s
bz z"
bz _#
bz u
bz {"
bz ^#
bz x
bz ~"
bz [#
bz v
bz |"
bz ]#
1?
1#"
1b
1$"
b1000 x#
#100
0?
0#"
0b
0$"
#105
b0 o
b0 x"
b0 R#
1n
b0 q
b0 y"
b0 Q#
0D"
b0 -
b0 3"
b0 R"
1@"
1,
b0 /
b0 2"
b0 Q"
1?
1#"
1b
1$"
b1001 x#
#110
0?
0#"
0b
0$"
#115
bz o
bz x"
bz R#
0n
bz q
bz y"
bz Q#
1t
bz -
bz 3"
bz R"
0,
bz /
bz 2"
bz Q"
12
0n#
1j#
1C
b1 p#
b0 o#
1?
1#"
1b
1$"
b1010 x#
#120
0?
0#"
0b
0$"
#125
0.
0j#
0C
0p
1l#
1?
1#"
1b
1$"
b1011 x#
#130
0?
0#"
0b
0$"
#135
z{
1\
zk
0L
z0
zt
1U
z!
z#
zd
0E
zn
0O
z.
0l#
1c#
1r
b1 w
b1 }"
b1 \#
b0 s
b0 z"
b0 _#
b11 u
b11 {"
b11 ^#
b0 x
b0 ~"
b0 [#
b1 v
b1 |"
b1 ]#
b10 (#
b10 )#
0B
1?
1#"
1b
1$"
b1100 x#
#140
0?
0#"
0b
0$"
#145
1@
1?
1#"
1b
1$"
b1101 x#
#150
0?
0#"
0b
0$"
#155
0.
0;#
0Q
1@#
1?
1#"
1b
1$"
b1110 x#
#160
0?
0#"
0b
0$"
#165
1(
17
b1 =
b1 0"
b1 `"
b0 8
b0 -"
b0 ]"
b11 :
b11 ."
b11 ^"
b0 >
b0 1"
b0 a"
b0 ;
b0 /"
b0 _"
0@#
1A#
1K
1=#
1Z
b1 `
b1 q"
b1 0#
b0 [
b0 n"
b0 3#
b11 ]
b11 o"
b11 2#
b0 a
b0 r"
b0 /#
b0 ^
b0 p"
b0 1#
1?
1#"
1b
1$"
b1111 x#
#170
0?
0#"
0b
0$"
#175
07
1I
1;"
09"
1&
1<"
b1 :"
b0 8"
b0 >"
0Z
1?
1#"
1b
1$"
b10000 x#
#180
0?
0#"
0b
0$"
#185
b10 N
b10 f"
b10 ,#
b0 J
b0 d"
b0 .#
b0 M
b0 e"
b0 -#
0\
b10 +
b10 4"
b10 S"
b1 8"
b0 '
b0 6"
b0 U"
b0 *
b0 5"
b0 T"
09
0=#
b0 ?#
1?
1#"
1b
1$"
b10001 x#
#190
0?
0#"
0b
0$"
#195
b101 N
b101 f"
b101 ,#
b10 8"
b101 +
b101 4"
b101 S"
b1 ?#
b10 M#
1?
1#"
1b
1$"
b10010 x#
#200
0?
0#"
0b
0$"
#205
b100 N
b100 f"
b100 ,#
b100 +
b100 4"
b100 S"
b11 8"
b10 ?#
b101 N#
1?
1#"
1b
1$"
b10011 x#
#210
0?
0#"
0b
0$"
#215
1L
0I
b11 N
b11 f"
b11 ,#
0;"
0<"
1)
0&
19"
bz 8"
b11 +
b11 4"
b11 S"
b11 ?#
b100 O#
1?
1#"
1b
1$"
b10100 x#
#220
0?
0#"
0b
0$"
#225
0(
bz =
bz 0"
bz `"
bz 8
bz -"
bz ]"
bz :
bz ."
bz ^"
bz >
bz 1"
bz a"
bz ;
bz /"
bz _"
bz N
bz f"
bz ,#
0L
bz J
bz d"
bz .#
bz M
bz e"
bz -#
1\
bz +
bz 4"
bz S"
0)
bz '
bz 6"
bz U"
bz *
bz 5"
bz T"
19
b1 B#
0A#
bz ?#
0K
bz `
bz q"
bz 0#
bz [
bz n"
bz 3#
bz ]
bz o"
bz 2#
bz a
bz r"
bz /#
bz ^
bz p"
bz 1#
1>#
b11 P#
1?
1#"
1b
1$"
b10101 x#
#230
0?
0#"
0b
0$"
#235
0>#
1E#
b101 P#
b110 O#
b111 N#
b100 M#
b100 J#
1?
1#"
1b
1$"
b10110 x#
#240
0?
0#"
0b
0$"
#245
0#
10
b1 5
b1 +"
b1 ["
b0 1
b0 ("
b0 X"
b11 3
b11 )"
b11 Y"
b0 6
b0 ,"
b0 \"
b0 4
b0 *"
b0 Z"
0E#
1<#
0F
1S
b1 X
b1 l"
b1 5#
b0 T
b0 i"
b0 8#
b11 V
b11 j"
b11 7#
b0 Y
b0 m"
b0 4#
b0 W
b0 k"
b0 6#
1?
1#"
1b
1$"
b10111 x#
#250
0?
0#"
0b
0$"
#255
1!
b0 $
b0 &"
b0 V"
00
0U
1E
02
0@"
1C"
1"
17"
0<#
1F#
b0 D#
1D
b0 G
b0 b"
b0 :#
0S
1B"
1?
1#"
1b
1$"
b11000 x#
#260
0?
0#"
0b
0$"
#265
b100 %
b100 '"
b100 W"
07"
b0 ?"
b1 D#
b100 H
b100 c"
b100 9#
1?
1#"
1b
1$"
b11001 x#
#270
0?
0#"
0b
0$"
#275
b111 %
b111 '"
b111 W"
b1 ?"
b100 G"
b10 D#
b111 H
b111 c"
b111 9#
1?
1#"
1b
1$"
b11010 x#
#280
0?
0#"
0b
0$"
#285
b110 %
b110 '"
b110 W"
b111 H"
b10 ?"
b11 D#
b110 H
b110 c"
b110 9#
1?
1#"
1b
1$"
b11011 x#
#290
0?
0#"
0b
0$"
#295
0!
1#
b101 %
b101 '"
b101 W"
b11 ?"
b110 I"
0F#
0D
1F
1G#
bz D#
b101 H
b101 c"
b101 9#
1?
1#"
1b
1$"
b11100 x#
#300
0?
0#"
0b
0$"
#305
1.
0#
bz %
bz '"
bz W"
bz $
bz &"
bz V"
bz 5
bz +"
bz ["
bz 1
bz ("
bz X"
bz 3
bz )"
bz Y"
bz 6
bz ,"
bz \"
bz 4
bz *"
bz Z"
0E
b101 J"
0B"
bz ?"
0C"
0"
1D"
1Q
0F
bz H
bz c"
bz 9#
bz G
bz b"
bz :#
bz X
bz l"
bz 5#
bz T
bz i"
bz 8#
bz V
bz j"
bz 7#
bz Y
bz m"
bz 4#
bz W
bz k"
bz 6#
1?
1#"
1b
1$"
b11101 x#
#310
0?
0#"
0b
0$"
#315
b0 P
b0 g"
b0 +#
1O
b0 R
b0 h"
b0 *#
0D"
b0 -
b0 3"
b0 R"
1@"
1,
b0 /
b0 2"
b0 Q"
1?
1#"
1b
1$"
b11110 x#
#320
0?
0#"
0b
0$"
#325
bz P
bz g"
bz +#
0O
bz R
bz h"
bz *#
1U
bz -
bz 3"
bz R"
0,
bz /
bz 2"
bz Q"
12
0G#
1C#
1A
b1 I#
b0 H#
1;#
1?
1#"
1b
1$"
b11111 x#
#330
0?
0#"
0b
0$"
